…
ibm_table <- tbl(cn, "ibm")
real_tibble <- collect(ibm_table)
real_tibble$date <- as.Date(real_tibble$date)

real_tibble <- real_tibble %>% 
  tq_mutate(ohlc_fun = Ad, 
            mutate_fun = periodReturn, 
            period = "daily")

## Warning: Argument ohlc_fun is deprecated; please use select instead.

real_tibble

## # A tibble: 2,542 × 8
##          date   open   high   low  close   volume adjusted daily.returns
##        <date>  <dbl>  <dbl> <dbl>  <dbl>    <dbl>    <dbl>         <dbl>
## 1  2007-01-03  97.18  98.40 96.26  97.27  9196800 78.35465   0.000000000
## 2  2007-01-04  97.25  98.79 96.88  98.31 10524500 79.19241   0.010691899
## 3  2007-01-05  97.60  97.95 96.91  97.42  7221300 78.47548  -0.009052989
## 4  2007-01-08  98.50  99.50 98.35  98.90 10340000 79.66768   0.015191994
## 5  2007-01-09  99.08 100.33 99.07 100.07 11108200 80.61016   0.011830105
## 6  2007-01-10  98.50  99.05 97.93  98.89  8744800 79.65962  -0.011791740
## 7  2007-01-11  99.00  99.90 98.50  98.65  8000700 79.46630  -0.002426926
## 8  2007-01-12  98.99  99.69 98.50  99.34  6636500 80.02211   0.006994374
## 9  2007-01-16  99.40 100.84 99.30 100.82  9602200 81.21431   0.014898370
## 10 2007-01-17 100.69 100.90 99.90 100.02  8200700 80.56988  -0.007934969
## # ... with 2,532 more rows
